SDS 348 Project 1- Crime in U.S. Cities
…
newjoin1 %>% group_by(state) %>% summarize(mean_murders2015 = mean(murders_2015, 
    na.rm = T)) %>% arrange(desc(mean_murders2015))

## # A tibble: 32 x 2
##    state mean_murders2015
##    <chr>            <dbl>
##  1 MD               249  
##  2 MI               216  
##  3 PA               128. 
##  4 IL               106. 
##  5 WI               105  
##  6 IN                86.5
##  7 TN                80.5
##  8 NJ                76  
##  9 GA                69.5
## 10 OH                65.7
## # … with 22 more rows

newjoin1 %>% group_by(state) %>% summarize(mean_murders2016 = mean(murders_2016, 
    na.rm = T)) %>% arrange(desc(mean_murders2016))

## # A tibble: 32 x 2
##    state mean_murders2016
##    <chr>            <dbl>
##  1 MD               230  
##  2 MI               221  
##  3 IL               152. 
##  4 PA               130. 
##  5 TN               104. 
##  6 IN                93.5
##  7 WI                84  
##  8 GA                77.5
##  9 NJ                72  
## 10 OH                63  
## # … with 22 more rows

newjoin1 %>% group_by(state) %>% summarize(mean_pop = mean(pop, 
    na.rm = T)) %>% arrange(desc(mean_pop))

## # A tibble: 32 x 2
##    state mean_pop
##    <chr>    <dbl>
##  1 PA     878043 
##  2 MI     871789 
##  3 IL     782346.
##  4 AZ     741356.
##  5 TX     699536.
##  6 MD     602658 
##  7 TN     581642.
##  8 WI     575250 
##  9 OR     542751 
## 10 NM     494962 
## # … with 22 more rows
…
Visualizing

Heat Map

library(tibble)
tidycor <- newjoin2cormat %>% as.data.frame %>% rownames_to_column("var1") %>% 
    pivot_longer(-1, names_to = "var2", values_to = "correlation")

tidycor %>% arrange(desc(correlation))

## # A tibble: 36 x 3
##    var1                var2                correlation
##    <chr>               <chr>                     <dbl>
##  1 pop                 pop                       1    
##  2 murders_2015        murders_2015              1    
##  3 murders_2016        murders_2016              1    
##  4 change              change                    1    
##  5 murders2015_per_pop murders2015_per_pop       1    
##  6 murders2016_per_pop murders2016_per_pop       1    
##  7 murders2015_per_pop murders2016_per_pop       0.984
##  8 murders2016_per_pop murders2015_per_pop       0.984
##  9 murders_2015        murders_2016              0.968
## 10 murders_2016        murders_2015              0.968
## # … with 26 more rows
…
